\relax 
\providecommand\hyper@newdestlabel[2]{}
\providecommand\HyperFirstAtBeginDocument{\AtBeginDocument}
\HyperFirstAtBeginDocument{\ifx\hyper@anchor\@undefined
\global\let\oldcontentsline\contentsline
\gdef\contentsline#1#2#3#4{\oldcontentsline{#1}{#2}{#3}}
\global\let\oldnewlabel\newlabel
\gdef\newlabel#1#2{\newlabelxx{#1}#2}
\gdef\newlabelxx#1#2#3#4#5#6{\oldnewlabel{#1}{{#2}{#3}}}
\AtEndDocument{\ifx\hyper@anchor\@undefined
\let\contentsline\oldcontentsline
\let\newlabel\oldnewlabel
\fi}
\fi}
\global\let\hyper@last\relax 
\gdef\HyperFirstAtBeginDocument#1{#1}
\providecommand\HyField@AuxAddToFields[1]{}
\providecommand\HyField@AuxAddToCoFields[2]{}
\citation{adomavicius2005toward}
\citation{adomavicius2005toward}
\citation{adomavicius2005toward}
\citation{adomavicius2005toward}
\citation{adomavicius2005toward}
\@writefile{toc}{\contentsline {section}{\numberline {1}Introduction}{\thepage }{section.1}}
\@writefile{toc}{\contentsline {section}{\numberline {2}Methodology}{\thepage }{section.2}}
\@writefile{toc}{\contentsline {subsection}{\numberline {2.1}Content based recommender system}{\thepage }{subsection.2.1}}
\@writefile{toc}{\contentsline {subsection}{\numberline {2.2}Collaborative filtering based recommender system}{\thepage }{subsection.2.2}}
\citation{adomavicius2005toward}
\citation{adomavicius2005toward}
\bibstyle{abbrv}
\bibdata{citations}
\bibcite{adomavicius2005toward}{1}
\@writefile{toc}{\contentsline {subsection}{\numberline {2.3}Hybrid recommender system}{\thepage }{subsection.2.3}}
\@writefile{toc}{\contentsline {section}{\numberline {3}Experiments}{\thepage }{section.3}}
\@writefile{toc}{\contentsline {subsection}{\numberline {3.1}Experimental setup}{\thepage }{subsection.3.1}}
\@writefile{lot}{\contentsline {table}{\numberline {1}{\ignorespaces Root Mean Squared Error of each data set for each method. The RMSE on the training set was calculated through 5-fold cross validation.}}{\thepage }{table.1}}
\@writefile{toc}{\contentsline {subsection}{\numberline {3.2}Experimental results}{\thepage }{subsection.3.2}}
\@writefile{toc}{\contentsline {section}{\numberline {4}Conclusions}{\thepage }{section.4}}
\@writefile{toc}{\contentsline {section}{\numberline {5}References}{\thepage }{section.5}}
