\relax 
\providecommand\hyper@newdestlabel[2]{}
\providecommand\HyperFirstAtBeginDocument{\AtBeginDocument}
\HyperFirstAtBeginDocument{\ifx\hyper@anchor\@undefined
\global\let\oldcontentsline\contentsline
\gdef\contentsline#1#2#3#4{\oldcontentsline{#1}{#2}{#3}}
\global\let\oldnewlabel\newlabel
\gdef\newlabel#1#2{\newlabelxx{#1}#2}
\gdef\newlabelxx#1#2#3#4#5#6{\oldnewlabel{#1}{{#2}{#3}}}
\AtEndDocument{\ifx\hyper@anchor\@undefined
\let\contentsline\oldcontentsline
\let\newlabel\oldnewlabel
\fi}
\fi}
\global\let\hyper@last\relax 
\gdef\HyperFirstAtBeginDocument#1{#1}
\providecommand\HyField@AuxAddToFields[1]{}
\providecommand\HyField@AuxAddToCoFields[2]{}
\citation{LawLee1998}
\citation{Gulli:2005:IWM:1062745.1062789}
\citation{Khelghati:2012:SEN:2428736.2428774}
\citation{Khelghati:2012:SEN:2428736.2428774}
\citation{LawLee1998}
\citation{LawLee1998}
\citation{LawLee1998}
\citation{LawLee1998}
\citation{LawLee1998}
\citation{LawLee1998}
\@writefile{toc}{\contentsline {section}{\numberline {1}Introduction}{\thepage }{section.1}}
\@writefile{toc}{\contentsline {section}{\numberline {2}Methodology}{\thepage }{section.2}}
\citation{LawLee1998}
\citation{LawLee1998}
\bibstyle{abbrv}
\bibdata{citations}
\@writefile{lof}{\contentsline {figure}{\numberline {1}{\ignorespaces Calculation of the overlap}}{\thepage }{figure.1}}
\newlabel{figure1}{{1}{\thepage }{Calculation of the overlap}{figure.1}{}}
\@writefile{lof}{\contentsline {figure}{\numberline {2}{\ignorespaces Coverage as the number of search engines increased(over 500 queries performed during 18 to 23 February 2015);x-axis is the number of search engines, y-axis is the number of retrieved documents \% normalized to the value for 3 search engines}}{\thepage }{figure.2}}
\newlabel{figure2}{{2}{\thepage }{Coverage as the number of search engines increased(over 500 queries performed during 18 to 23 February 2015);x-axis is the number of search engines, y-axis is the number of retrieved documents \% normalized to the value for 3 search engines}{figure.2}{}}
\@writefile{toc}{\contentsline {section}{\numberline {3}Findings}{\thepage }{section.3}}
\@writefile{lot}{\contentsline {table}{\numberline {1}{\ignorespaces Estimated coverage of each engine with respect to the combined coverage of all three.}}{\thepage }{table.1}}
\newlabel{table1}{{1}{\thepage }{Estimated coverage of each engine with respect to the combined coverage of all three}{table.1}{}}
\@writefile{lot}{\contentsline {table}{\numberline {2}{\ignorespaces The size of the indexable Web.}}{\thepage }{table.2}}
\newlabel{table2}{{2}{\thepage }{The size of the indexable Web}{table.2}{}}
\@writefile{toc}{\contentsline {section}{\numberline {4}Conclusions}{\thepage }{section.4}}
\@writefile{lot}{\contentsline {table}{\numberline {3}{\ignorespaces Percentage coverage of each search engine}}{\thepage }{table.3}}
\newlabel{table3}{{3}{\thepage }{Percentage coverage of each search engine}{table.3}{}}
\bibcite{Gulli:2005:IWM:1062745.1062789}{1}
\bibcite{Khelghati:2012:SEN:2428736.2428774}{2}
\bibcite{LawLee1998}{3}
\@writefile{toc}{\contentsline {section}{\numberline {5}References}{\thepage }{section.5}}
